{
    "settings": {
      "index": {
        "number_of_shards": 5,
        "number_of_replicas": 1,
        "blocks": {
          "read_only_allow_delete": "false"
        }
      },
      "analysis": {
        "filter": {
          "german_stop": {
            "type": "stop",
            "stopwords": "_german_"
          },
          "german_stemmer": {
            "type": "stemmer",
            "language": "light_german"
          },
          "english_stop": {
            "type": "stop",
            "stopwords": "_english_"
          },
          "english_stemmer": {
            "type": "stemmer",
            "language": "english"
          },
          "english_possessive_stemmer": {
            "type": "stemmer",
            "language": "possessive_english"
          }
        },
        "analyzer": {
          "rebuilt_german": {
            "tokenizer": "standard",
            "filter": [
              "lowercase",
              "german_stop",
              "german_normalization",
              "german_stemmer"
            ]
          },
          "rebuilt_english": {
            "tokenizer": "standard",
            "filter": [
              "english_possessive_stemmer",
              "lowercase",
              "english_stop",
              "english_stemmer"
            ]
          }
        }
      }
    },
    "mappings": {
      "dz_phys_type": {
        "properties": {
          "bycreator": {
            "type": "text",
            "fields": {
              "keyword": {
                "type": "keyword",
                "ignore_above": 256
              }
            }
          },
          "currentno": {
            "type": "text",
            "fields": {
              "keyword": {
                "type": "keyword",
                "ignore_above": 256
              }
            }
          },
          "currentnosort": {
            "type": "long"
          },
          "date_indexed": {
            "type": "date"
          },
          "date_modified": {
            "type": "date"
          },
          "dc": {
            "type": "text",
            "fields": {
              "keyword": {
                "type": "keyword",
                "ignore_above": 256
              }
            }
          },
          "end_page_index": {
            "type": "long"
          },
          "filename": {
            "type": "text",
            "fields": {
              "keyword": {
                "type": "keyword",
                "ignore_above": 256
              }
            }
          },
          "format": {
            "type": "text",
            "fields": {
              "keyword": {
                "type": "keyword",
                "ignore_above": 256
              }
            }
          },
          "fulltext": {
            "type": "text",
            "term_vector": "with_positions_offsets",
            "fields": {
              "keyword": {
                "type": "keyword",
                "ignore_above": 256
              }
            },
            "analyzer": "rebuilt_german"
          },
          "fulltext_not_analysed": {
            "type": "text",
            "term_vector": "with_positions_offsets",
            "fields": {
              "keyword": {
                "type": "keyword",
                "ignore_above": 256
              }
            }
          },
          "id": {
            "type": "text",
            "fields": {
              "keyword": {
                "type": "keyword",
                "ignore_above": 256
              }
            }
          },
          "index": {
            "type": "long"
          },
          "iscontribution": {
            "type": "boolean"
          },
          "label": {
            "type": "text",
            "fields": {
              "keyword": {
                "type": "keyword",
                "ignore_above": 256
              }
            }
          },
          "log": {
            "type": "text",
            "fields": {
              "keyword": {
                "type": "keyword",
                "ignore_above": 256
              }
            }
          },
          "log_id": {
            "type": "text",
            "fields": {
              "keyword": {
                "type": "keyword",
                "ignore_above": 256
              }
            }
          },
          "mimetype": {
            "type": "text",
            "fields": {
              "keyword": {
                "type": "keyword",
                "ignore_above": 256
              }
            }
          },
          "order": {
            "type": "long"
          },
          "orderlabel": {
            "type": "text",
            "fields": {
              "keyword": {
                "type": "keyword",
                "ignore_above": 256
              }
            }
          },
          "page": {
            "type": "text",
            "fields": {
              "keyword": {
                "type": "keyword",
                "ignore_above": 256
              }
            }
          },
          "page_key": {
            "type": "text",
            "fields": {
              "keyword": {
                "type": "keyword",
                "ignore_above": 256
              }
            }
          },
          "parent": {
            "properties": {
              "catalogue": {
                "type": "text",
                "fields": {
                  "keyword": {
                    "type": "keyword",
                    "ignore_above": 256
                  }
                }
              },
              "dc": {
                "type": "text",
                "fields": {
                  "keyword": {
                    "type": "keyword",
                    "ignore_above": 256
                  }
                }
              },
              "issn": {
                "type": "text",
                "fields": {
                  "keyword": {
                    "type": "keyword",
                    "ignore_above": 256
                  }
                }
              },
              "log": {
                "type": "text",
                "fields": {
                  "keyword": {
                    "type": "keyword",
                    "ignore_above": 256
                  }
                }
              },
              "parent_id": {
                "type": "text",
                "fields": {
                  "keyword": {
                    "type": "keyword",
                    "ignore_above": 256
                  }
                }
              },
              "purl": {
                "type": "text",
                "fields": {
                  "keyword": {
                    "type": "keyword",
                    "ignore_above": 256
                  }
                }
              },
              "record_id": {
                "type": "text",
                "fields": {
                  "keyword": {
                    "type": "keyword",
                    "ignore_above": 256
                  }
                }
              },
              "rights_access_condition_infos": {
                "properties": {
                  "access_condition": {
                    "type": "text",
                    "fields": {
                      "keyword": {
                        "type": "keyword",
                        "ignore_above": 256
                      }
                    }
                  }
                }
              },
              "title": {
                "properties": {
                  "authority_URI": {
                    "type": "text",
                    "fields": {
                      "keyword": {
                        "type": "keyword",
                        "ignore_above": 256
                      }
                    }
                  },
                  "partname": {
                    "type": "text",
                    "fields": {
                      "keyword": {
                        "type": "keyword",
                        "ignore_above": 256
                      }
                    }
                  },
                  "partnumber": {
                    "type": "long"
                  },
                  "sorttitle": {
                    "type": "text",
                    "fields": {
                      "keyword": {
                        "type": "keyword",
                        "ignore_above": 256
                      },
                      "sort": {
                        "type": "icu_collation_keyword",
                        "index": false,
                        "language": "de",
                        "country": "DE",
                        "variant": "@collation=phonebook"
                      }
                    },
                    "analyzer": "rebuilt_german"
                  },
                  "subtitle": {
                    "type": "text",
                    "fields": {
                      "keyword": {
                        "type": "keyword",
                        "ignore_above": 256
                      }
                    },
                    "analyzer": "rebuilt_german"
                  },
                  "title": {
                    "type": "text",
                    "fields": {
                      "keyword": {
                        "type": "keyword",
                        "ignore_above": 256
                      }
                    },
                    "analyzer": "rebuilt_german"
                  },
                  "type": {
                    "type": "text",
                    "fields": {
                      "keyword": {
                        "type": "keyword",
                        "ignore_above": 256
                      }
                    }
                  },
                  "value_URI": {
                    "type": "text",
                    "fields": {
                      "keyword": {
                        "type": "keyword",
                        "ignore_above": 256
                      }
                    }
                  }
                }
              },
              "type": {
                "type": "text",
                "fields": {
                  "keyword": {
                    "type": "keyword",
                    "ignore_above": 256
                  }
                }
              },
              "zdb": {
                "type": "text",
                "fields": {
                  "keyword": {
                    "type": "keyword",
                    "ignore_above": 256
                  }
                }
              }
            }
          },
          "phys": {
            "type": "text",
            "fields": {
              "keyword": {
                "type": "keyword",
                "ignore_above": 256
              }
            }
          },
          "publish_infos": {
            "properties": {
              "place_info": {
                "properties": {
                  "place_term": {
                    "properties": {
                      "type": {
                        "type": "text",
                        "fields": {
                          "keyword": {
                            "type": "keyword",
                            "ignore_above": 256
                          }
                        }
                      },
                      "authority": {
                        "type": "text",
                        "fields": {
                          "keyword": {
                            "type": "keyword",
                            "ignore_above": 256
                          }
                        }
                      },
                      "authorityURI": {
                        "type": "text",
                        "fields": {
                          "keyword": {
                            "type": "keyword",
                            "ignore_above": 256
                          }
                        }
                      },
                      "valueURI": {
                        "type": "text",
                        "fields": {
                          "keyword": {
                            "type": "keyword",
                            "ignore_above": 256
                          }
                        }
                      },
                      "value": {
                        "type": "text",
                        "fields": {
                          "keyword": {
                            "type": "keyword",
                            "ignore_above": 256
                          }
                        }
                      }
                    }
                  }
                }
              },
              "place_publish": {
                "type": "text",
                "fields": {
                  "keyword": {
                    "type": "keyword",
                    "ignore_above": 256
                  }
                }
              },
              "publisher": {
                "type": "text",
                "fields": {
                  "keyword": {
                    "type": "keyword",
                    "ignore_above": 256
                  }
                }
              },
              "publisher_normalized": {
                "type": "text",
                "fields": {
                  "keyword": {
                    "type": "keyword",
                    "ignore_above": 256
                  }
                }
              },
              "publisher_info": {
                "type": "text",
                "fields": {
                  "keyword": {
                    "type": "keyword",
                    "ignore_above": 256
                  }
                }
              },
              "year_publish": {
                "type": "long"
              },
              "year_publish_end": {
                "type": "long"
              },
              "year_publish_start": {
                "type": "long"
              },
              "year_publish_string": {
                "type": "text",
                "fields": {
                  "keyword": {
                    "type": "keyword",
                    "ignore_above": 256
                  }
                }
              }
            }
          },
          "rights_access_condition_infos": {
            "properties": {
              "access_condition": {
                "type": "text",
                "fields": {
                  "keyword": {
                    "type": "keyword",
                    "ignore_above": 256
                  }
                }
              }
            }
          },
          "start_page_index": {
            "type": "long"
          },
          "structrun": {
            "properties": {
              "catalogue": {
                "type": "text",
                "fields": {
                  "keyword": {
                    "type": "keyword",
                    "ignore_above": 256
                  }
                }
              },
              "currentno": {
                "type": "text",
                "fields": {
                  "keyword": {
                    "type": "keyword",
                    "ignore_above": 256
                  }
                }
              },
              "currentnosort": {
                "type": "long"
              },
              "dc": {
                "type": "text",
                "fields": {
                  "keyword": {
                    "type": "keyword",
                    "ignore_above": 256
                  }
                }
              },
              "issn": {
                "type": "text",
                "fields": {
                  "keyword": {
                    "type": "keyword",
                    "ignore_above": 256
                  }
                }
              },
              "parent_id": {
                "type": "text",
                "fields": {
                  "keyword": {
                    "type": "keyword",
                    "ignore_above": 256
                  }
                }
              },
              "publish_infos": {
                "properties": {
                  "place_info": {
                    "properties": {
                      "place_term": {
                        "properties": {
                          "type": {
                            "type": "text",
                            "fields": {
                              "keyword": {
                                "type": "keyword",
                                "ignore_above": 256
                              }
                            }
                          },
                          "authority": {
                            "type": "text",
                            "fields": {
                              "keyword": {
                                "type": "keyword",
                                "ignore_above": 256
                              }
                            }
                          },
                          "authorityURI": {
                            "type": "text",
                            "fields": {
                              "keyword": {
                                "type": "keyword",
                                "ignore_above": 256
                              }
                            }
                          },
                          "valueURI": {
                            "type": "text",
                            "fields": {
                              "keyword": {
                                "type": "keyword",
                                "ignore_above": 256
                              }
                            }
                          },
                          "value": {
                            "type": "text",
                            "fields": {
                              "keyword": {
                                "type": "keyword",
                                "ignore_above": 256
                              }
                            }
                          }
                        }
                      }
                    }
                  },
                  "place_publish": {
                    "type": "text",
                    "fields": {
                      "keyword": {
                        "type": "keyword",
                        "ignore_above": 256
                      }
                    }
                  },
                  "publisher": {
                    "type": "text",
                    "fields": {
                      "keyword": {
                        "type": "keyword",
                        "ignore_above": 256
                      }
                    }
                  },
                  "publisher_info": {
                    "type": "text",
                    "fields": {
                      "keyword": {
                        "type": "keyword",
                        "ignore_above": 256
                      }
                    }
                  },
                  "year_publish": {
                    "type": "long"
                  },
                  "year_publish_end": {
                    "type": "long"
                  },
                  "year_publish_start": {
                    "type": "long"
                  },
                  "year_publish_string": {
                    "type": "text",
                    "fields": {
                      "keyword": {
                        "type": "keyword",
                        "ignore_above": 256
                      }
                    }
                  }
                }
              },
              "purl": {
                "type": "text",
                "fields": {
                  "keyword": {
                    "type": "keyword",
                    "ignore_above": 256
                  }
                }
              },
              "rights_access_condition_infos": {
                "properties": {
                  "access_condition": {
                    "type": "text",
                    "fields": {
                      "keyword": {
                        "type": "keyword",
                        "ignore_above": 256
                      }
                    }
                  }
                }
              },
              "title": {
                "properties": {
                  "authority_URI": {
                    "type": "text",
                    "fields": {
                      "keyword": {
                        "type": "keyword",
                        "ignore_above": 256
                      }
                    }
                  },
                  "partname": {
                    "type": "text",
                    "fields": {
                      "keyword": {
                        "type": "keyword",
                        "ignore_above": 256
                      }
                    }
                  },
                  "partnumber": {
                    "type": "long"
                  },
                  "sorttitle": {
                    "type": "text",
                    "fields": {
                      "keyword": {
                        "type": "keyword",
                        "ignore_above": 256
                      },
                      "sort": {
                        "type": "icu_collation_keyword",
                        "index": false,
                        "language": "de",
                        "country": "DE",
                        "variant": "@collation=phonebook"
                      }
                    },
                    "analyzer": "rebuilt_german"
                  },
                  "subtitle": {
                    "type": "text",
                    "fields": {
                      "keyword": {
                        "type": "keyword",
                        "ignore_above": 256
                      }
                    },
                    "analyzer": "rebuilt_german"
                  },
                  "title": {
                    "type": "text",
                    "fields": {
                      "keyword": {
                        "type": "keyword",
                        "ignore_above": 256
                      }
                    },
                    "analyzer": "rebuilt_german"
                  },
                  "type": {
                    "type": "text",
                    "fields": {
                      "keyword": {
                        "type": "keyword",
                        "ignore_above": 256
                      }
                    }
                  },
                  "value_URI": {
                    "type": "text",
                    "fields": {
                      "keyword": {
                        "type": "keyword",
                        "ignore_above": 256
                      }
                    }
                  }
                }
              },
              "type": {
                "type": "text",
                "fields": {
                  "keyword": {
                    "type": "keyword",
                    "ignore_above": 256
                  }
                }
              },
              "zdb": {
                "type": "text",
                "fields": {
                  "keyword": {
                    "type": "keyword",
                    "ignore_above": 256
                  }
                }
              }
            }
          },
          "title": {
            "properties": {
              "authority_URI": {
                "type": "text",
                "fields": {
                  "keyword": {
                    "type": "keyword",
                    "ignore_above": 256
                  }
                }
              },
              "partname": {
                "type": "text",
                "fields": {
                  "keyword": {
                    "type": "keyword",
                    "ignore_above": 256
                  }
                }
              },
              "partnumber": {
                "type": "long"
              },
              "sorttitle": {
                "type": "text",
                "fields": {
                  "keyword": {
                    "type": "keyword",
                    "ignore_above": 256
                  },
                  "sort": {
                    "type": "icu_collation_keyword",
                    "index": false,
                    "language": "de",
                    "country": "DE",
                    "variant": "@collation=phonebook"
                  }
                },
                "analyzer": "rebuilt_german"
              },
              "subtitle": {
                "type": "text",
                "fields": {
                  "keyword": {
                    "type": "keyword",
                    "ignore_above": 256
                  }
                },
                "analyzer": "rebuilt_german"
              },
              "title": {
                "type": "text",
                "fields": {
                  "keyword": {
                    "type": "keyword",
                    "ignore_above": 256
                  }
                },
                "analyzer": "rebuilt_german"
              },
              "type": {
                "type": "text",
                "fields": {
                  "keyword": {
                    "type": "keyword",
                    "ignore_above": 256
                  }
                }
              },
              "value_URI": {
                "type": "text",
                "fields": {
                  "keyword": {
                    "type": "keyword",
                    "ignore_above": 256
                  }
                }
              }
            }
          },
          "type": {
            "type": "text",
            "fields": {
              "keyword": {
                "type": "keyword",
                "ignore_above": 256
              }
            }
          },
          "work": {
            "type": "text",
            "fields": {
              "keyword": {
                "type": "keyword",
                "ignore_above": 256
              }
            }
          }
        }
      }
    }
  }