{
    "settings": {
      "index": {
        "number_of_shards": 5,
        "number_of_replicas": 1,
        "blocks" : {
          "read_only_allow_delete" : "false"
        }
      },
      "analysis": {
        "filter": {
          "german_stop": {
            "type": "stop",
            "stopwords": "stopwords.txt"
          },
          "german_stemmer": {
            "type": "stemmer",
            "language": "light_german"
          },
          "english_stop": {
            "type": "stop",
            "stopwords": "_english_"
          },
          "english_stemmer": {
            "type": "stemmer",
            "language": "english"
          },
          "english_possessive_stemmer": {
            "type": "stemmer",
            "language": "possessive_english"
          }
        },
        "analyzer": {
          "rebuilt_german": {
            "tokenizer": "standard",
            "filter": [
              "lowercase",
              "german_stop",
              "german_normalization",
              "german_stemmer"
            ]
          },
          "rebuilt_english": {
            "tokenizer": "standard",
            "filter": [
              "english_possessive_stemmer",
              "lowercase",
              "english_stop",
              "english_stemmer"
            ]
          }
        }
      }
    },
    "mappings": {
      "dz_log_type": {
        "properties": {
          "metadata": {
            "type": "text",
            "analyzer": "rebuilt_german"
          },
          "metadata_not_analysed": {
            "type": "text"
          },
          "bycreator": {
            "type": "text",
            "fields": {
              "keyword": {
                "type": "keyword",
                "ignore_above": 256
              }
            }
          },
          "byperson": {
            "type": "text",
            "fields": {
              "keyword": {
                "type": "keyword",
                "ignore_above": 256
              }
            }
          },
          "bytitle": {
            "type": "text",
            "fields": {
              "keyword": {
                "type": "keyword",
                "ignore_above": 256
              }
            }
          },
          "catalogue": {
            "type": "text",
            "fields": {
              "keyword": {
                "type": "keyword",
                "ignore_above": 256
              }
            },
            "copy_to": [
              "metadata",
              "metadata_not_analysed"
            ]
          },
          "collection": {
            "type": "text",
            "fields": {
              "keyword": {
                "type": "keyword",
                "ignore_above": 256
              }
            },
            "copy_to": [
              "metadata",
              "metadata_not_analysed"
            ]
          },
          "context": {
            "type": "text",
            "fields": {
              "keyword": {
                "type": "keyword",
                "ignore_above": 256
              }
            }
          },
          "creator_infos": {
            "properties": {
              "gndNumber": {
                "type": "text",
                "fields": {
                  "keyword": {
                    "type": "keyword",
                    "ignore_above": 256
                  }
                },
                "copy_to": [
                  "metadata",
                  "metadata_not_analysed"
                ]
              },
              "gndURI": {
                "type": "text",
                "fields": {
                  "keyword": {
                    "type": "keyword",
                    "ignore_above": 256
                  }
                },
                "copy_to": [
                  "metadata",
                  "metadata_not_analysed"
                ]
              },
              "name": {
                "type": "text",
                "fields": {
                  "keyword": {
                    "type": "keyword",
                    "ignore_above": 256
                  }
                },
                "copy_to": [
                  "metadata",
                  "metadata_not_analysed"
                ]
              },
              "roleterm": {
                "type": "text",
                "fields": {
                  "keyword": {
                    "type": "keyword",
                    "ignore_above": 256
                  }
                }
              },
              "roleterm_authority": {
                "type": "text",
                "fields": {
                  "keyword": {
                    "type": "keyword",
                    "ignore_above": 256
                  }
                }
              },
              "roleterm_type": {
                "type": "text",
                "fields": {
                  "keyword": {
                    "type": "keyword",
                    "ignore_above": 256
                  }
                }
              },
              "type": {
                "type": "text",
                "fields": {
                  "keyword": {
                    "type": "keyword",
                    "ignore_above": 256
                  }
                }
              }
            }
          },
          "currentno": {
            "type": "text",
            "fields": {
              "keyword": {
                "type": "keyword",
                "ignore_above": 256
              }
            }
          },
          "currentnosort": {
            "type": "long"
          },
          "date_indexed": {
            "type": "date"
          },
          "date_modified": {
            "type": "date"
          },
          "dc": {
            "type": "text",
            "fields": {
              "keyword": {
                "type": "keyword",
                "ignore_above": 256
              }
            },
            "copy_to": [
              "metadata",
              "metadata_not_analysed"
            ]
          },
          "dc_zvdd": {
            "type": "text",
            "fields": {
              "keyword": {
                "type": "keyword",
                "ignore_above": 256
              }
            },
            "copy_to": [
              "metadata",
              "metadata_not_analysed"
            ]
          },
          "dc_ddc": {
            "type": "text",
            "fields": {
              "keyword": {
                "type": "keyword",
                "ignore_above": 256
              }
            },
            "copy_to": [
              "metadata",
              "metadata_not_analysed"
            ]
          },
          "digitization_infos": {
            "properties": {
              "edition_digitization": {
                "type": "text",
                "fields": {
                  "keyword": {
                    "type": "keyword",
                    "ignore_above": 256
                  }
                }
              },
              "place_digitization": {
                "type": "text",
                "fields": {
                  "keyword": {
                    "type": "keyword",
                    "ignore_above": 256
                  }
                },
                "copy_to": [
                  "metadata",
                  "metadata_not_analysed"
                ]
              },
              "publisher_digitization": {
                "type": "text",
                "fields": {
                  "keyword": {
                    "type": "keyword",
                    "ignore_above": 256
                  }
                },
                "copy_to": [
                  "metadata",
                  "metadata_not_analysed"
                ]
              },
              "year_digitization_start": {
                "type": "long"
              },
              "year_digitization_string": {
                "type": "text",
                "fields": {
                  "keyword": {
                    "type": "keyword",
                    "ignore_above": 256
                  }
                },
                "copy_to": [
                  "metadata",
                  "metadata_not_analysed"
                ]
              }
            }
          },
          "dmdid": {
            "type": "text",
            "fields": {
              "keyword": {
                "type": "keyword",
                "ignore_above": 256
              }
            }
          },
          "doctype": {
            "type": "text",
            "fields": {
              "keyword": {
                "type": "keyword",
                "ignore_above": 256
              }
            }
          },
          "end_page_index": {
            "type": "long"
          },
          "end_page_phys_id": {
            "type": "text",
            "fields": {
              "keyword": {
                "type": "keyword",
                "ignore_above": 256
              }
            }
          },
          "export_data_created": {
            "type": "boolean"
          },
          "host": {
            "type": "text",
            "fields": {
              "keyword": {
                "type": "keyword",
                "ignore_above": 256
              }
            }
          },
          "id": {
            "type": "text",
            "fields": {
              "keyword": {
                "type": "keyword",
                "ignore_above": 256
              }
            },
            "copy_to": [
              "metadata",
              "metadata_not_analysed"
            ]
          },
          "identifier": {
            "type": "text",
            "fields": {
              "keyword": {
                "type": "keyword",
                "ignore_above": 256
              }
            }
          },
          "identifier_info": {
            "properties": {
              "id": {
                "type": "text",
                "fields": {
                  "keyword": {
                    "type": "keyword",
                    "ignore_above": 256
                  }
                },
                "copy_to": [
                  "metadata",
                  "metadata_not_analysed"
                ]
              },
              "type": {
                "type": "text",
                "fields": {
                  "keyword": {
                    "type": "keyword",
                    "ignore_above": 256
                  }
                }
              }
            }
          },
          "index": {
            "type": "long"
          },
          "isanchor": {
            "type": "boolean"
          },
          "iscontribution": {
            "type": "boolean"
          },
          "isparent": {
            "type": "boolean"
          },
          "issn": {
            "type": "text",
            "fields": {
              "keyword": {
                "type": "keyword",
                "ignore_above": 256
              }
            },
            "copy_to": [
              "metadata",
              "metadata_not_analysed"
            ]
          },
          "iswork": {
            "type": "boolean"
          },
          "label": {
            "type": "text",
            "fields": {
              "keyword": {
                "type": "keyword",
                "ignore_above": 256
              }
            },
            "copy_to": [
              "metadata",
              "metadata_not_analysed"
            ]
          },
          "lang": {
            "type": "text",
            "fields": {
              "keyword": {
                "type": "keyword",
                "ignore_above": 256
              }
            }
          },
          "level": {
            "type": "long"
          },
          "log": {
            "type": "text",
            "fields": {
              "keyword": {
                "type": "keyword",
                "ignore_above": 256
              }
            }
          },
          "log_id": {
            "type": "text",
            "fields": {
              "keyword": {
                "type": "keyword",
                "ignore_above": 256
              }
            }
          },
          "navi_year": {
            "type": "long"
          },
          "navi_month": {
            "type": "long"
          },
          "navi_day": {
            "type": "long"
          },
          "navi_string": {
            "type": "text",
            "fields": {
              "keyword": {
                "type": "keyword",
                "ignore_above": 256
              }
            }
          },
          "note_infos": {
            "properties": {
              "id": {
                "type": "text",
                "fields": {
                  "keyword": {
                    "type": "keyword",
                    "ignore_above": 256
                  }
                }
              },
              "type": {
                "type": "text",
                "fields": {
                  "keyword": {
                    "type": "keyword",
                    "ignore_above": 256
                  }
                }
              },
              "value": {
                "type": "text",
                "fields": {
                  "keyword": {
                    "type": "keyword",
                    "ignore_above": 256
                  }
                }
              }
            }
          },
          "order": {
            "type": "long"
          },
          "parent": {
            "properties": {
              "catalogue": {
                "type": "text",
                "fields": {
                  "keyword": {
                    "type": "keyword",
                    "ignore_above": 256
                  }
                }
              },
              "dc": {
                "type": "text",
                "fields": {
                  "keyword": {
                    "type": "keyword",
                    "ignore_above": 256
                  }
                }
              },
              "issn": {
                "type": "text",
                "fields": {
                  "keyword": {
                    "type": "keyword",
                    "ignore_above": 256
                  }
                }
              },
              "log": {
                "type": "text",
                "fields": {
                  "keyword": {
                    "type": "keyword",
                    "ignore_above": 256
                  }
                }
              },
              "parent_id": {
                "type": "text",
                "fields": {
                  "keyword": {
                    "type": "keyword",
                    "ignore_above": 256
                  }
                }
              },
              "purl": {
                "type": "text",
                "fields": {
                  "keyword": {
                    "type": "keyword",
                    "ignore_above": 256
                  }
                }
              },
              "record_id": {
                "type": "text",
                "fields": {
                  "keyword": {
                    "type": "keyword",
                    "ignore_above": 256
                  }
                }
              },
              "rights_access_condition_infos": {
                "properties": {
                  "access_condition": {
                    "type": "text",
                    "fields": {
                      "keyword": {
                        "type": "keyword",
                        "ignore_above": 256
                      }
                    }
                  }
                }
              },
              "title": {
                "properties": {
                  "authority_URI": {
                    "type": "text",
                    "fields": {
                      "keyword": {
                        "type": "keyword",
                        "ignore_above": 256
                      }
                    }
                  },
                  "partname": {
                    "type": "text",
                    "fields": {
                      "keyword": {
                        "type": "keyword",
                        "ignore_above": 256
                      }
                    }
                  },
                  "partnumber": {
                    "type": "long"
                  },
                  "sorttitle": {
                    "type": "text",
                    "fields": {
                      "keyword": {
                        "type": "keyword",
                        "ignore_above": 256
                      },
                      "sort": {
                        "type": "icu_collation_keyword",
                        "index": false,
                        "language": "de",
                        "country": "DE",
                        "variant": "@collation=phonebook"
                      }
                    },
                    "analyzer": "rebuilt_german"
                  },
                  "subtitle": {
                    "type": "text",
                    "fields": {
                      "keyword": {
                        "type": "keyword",
                        "ignore_above": 256
                      }
                    },
                    "analyzer": "rebuilt_german"
                  },
                  "title": {
                    "type": "text",
                    "fields": {
                      "keyword": {
                        "type": "keyword",
                        "ignore_above": 256
                      }
                    },
                    "analyzer": "rebuilt_german"
                  },
                  "type": {
                    "type": "text",
                    "fields": {
                      "keyword": {
                        "type": "keyword",
                        "ignore_above": 256
                      }
                    }
                  },
                  "value_URI": {
                    "type": "text",
                    "fields": {
                      "keyword": {
                        "type": "keyword",
                        "ignore_above": 256
                      }
                    }
                  }
                }
              },
              "type": {
                "type": "text",
                "fields": {
                  "keyword": {
                    "type": "keyword",
                    "ignore_above": 256
                  }
                }
              },
              "zdb": {
                "type": "text",
                "fields": {
                  "keyword": {
                    "type": "keyword",
                    "ignore_above": 256
                  }
                }
              }
            }
          },
          "parent_id": {
            "type": "text",
            "fields": {
              "keyword": {
                "type": "keyword",
                "ignore_above": 256
              }
            }
          },
          "parent_log": {
            "type": "text",
            "fields": {
              "keyword": {
                "type": "keyword",
                "ignore_above": 256
              }
            }
          },
          "parent_work": {
            "type": "text",
            "fields": {
              "keyword": {
                "type": "keyword",
                "ignore_above": 256
              }
            }
          },
          "person_infos": {
            "properties": {
              "gndNumber": {
                "type": "text",
                "fields": {
                  "keyword": {
                    "type": "keyword",
                    "ignore_above": 256
                  }
                },
                "copy_to": [
                  "metadata",
                  "metadata_not_analysed"
                ]
              },
              "gndURI": {
                "type": "text",
                "fields": {
                  "keyword": {
                    "type": "keyword",
                    "ignore_above": 256
                  }
                },
                "copy_to": [
                  "metadata",
                  "metadata_not_analysed"
                ]
              },
              "name": {
                "type": "text",
                "fields": {
                  "keyword": {
                    "type": "keyword",
                    "ignore_above": 256
                  }
                },
                "copy_to": [
                  "metadata",
                  "metadata_not_analysed"
                ]
              },
              "roleterm": {
                "type": "text",
                "fields": {
                  "keyword": {
                    "type": "keyword",
                    "ignore_above": 256
                  }
                }
              },
              "roleterm_authority": {
                "type": "text",
                "fields": {
                  "keyword": {
                    "type": "keyword",
                    "ignore_above": 256
                  }
                }
              },
              "roleterm_type": {
                "type": "text",
                "fields": {
                  "keyword": {
                    "type": "keyword",
                    "ignore_above": 256
                  }
                }
              },
              "type": {
                "type": "text",
                "fields": {
                  "keyword": {
                    "type": "keyword",
                    "ignore_above": 256
                  }
                }
              }
            }
          },
          "physical_description_infos": {
            "properties": {
              "digitalOrigin": {
                "type": "text",
                "fields": {
                  "keyword": {
                    "type": "keyword",
                    "ignore_above": 256
                  }
                }
              },
              "extent": {
                "type": "text",
                "fields": {
                  "keyword": {
                    "type": "keyword",
                    "ignore_above": 256
                  }
                }
              },
              "scripttype": {
                "type": "text",
                "fields": {
                  "keyword": {
                    "type": "keyword",
                    "ignore_above": 256
                  }
                }
              }
            }
          },
          "preceding": {
            "type": "text",
            "fields": {
              "keyword": {
                "type": "keyword",
                "ignore_above": 256
              }
            }
          },
          "product": {
            "type": "text",
            "fields": {
              "keyword": {
                "type": "keyword",
                "ignore_above": 256
              }
            }
          },
          "publish_infos": {
            "properties": {
              "place_info": {
                "properties": {
                  "place_term": {
                    "properties": {
                      "type": {
                        "type": "text",
                        "fields": {
                          "keyword": {
                            "type": "keyword",
                            "ignore_above": 256
                          }
                        }
                      },
                      "authority": {
                        "type": "text",
                        "fields": {
                          "keyword": {
                            "type": "keyword",
                            "ignore_above": 256
                          }
                        }
                      },
                      "authorityURI": {
                        "type": "text",
                        "fields": {
                          "keyword": {
                            "type": "keyword",
                            "ignore_above": 256
                          }
                        }
                      },
                      "valueURI": {
                        "type": "text",
                        "fields": {
                          "keyword": {
                            "type": "keyword",
                            "ignore_above": 256
                          }
                        }
                      },
                      "value": {
                        "type": "text",
                        "fields": {
                          "keyword": {
                            "type": "keyword",
                            "ignore_above": 256
                          }
                        }
                      }
                    }
                  }
                }
              },
              "place_publish": {
                "type": "text",
                "fields": {
                  "keyword": {
                    "type": "keyword",
                    "ignore_above": 256
                  }
                },
                "copy_to": [
                  "metadata",
                  "metadata_not_analysed"
                ]
              },
              "publisher": {
                "type": "text",
                "fields": {
                  "keyword": {
                    "type": "keyword",
                    "ignore_above": 256
                  }
                },
                "copy_to": [
                  "metadata",
                  "metadata_not_analysed"
                ]
              },
              "publisher_info": {
                "type": "text",
                "fields": {
                  "keyword": {
                    "type": "keyword",
                    "ignore_above": 256
                  }
                }
              },
              "year_publish": {
                "type": "long"
              },
              "year_publish_end": {
                "type": "long"
              },
              "year_publish_start": {
                "type": "long"
              },
              "year_publish_string": {
                "type": "text",
                "fields": {
                  "keyword": {
                    "type": "keyword",
                    "ignore_above": 256
                  }
                },
                "copy_to": [
                  "metadata",
                  "metadata_not_analysed"
                ]
              }
            }
          },
          "purl": {
            "type": "text",
            "fields": {
              "keyword": {
                "type": "keyword",
                "ignore_above": 256
              }
            },
            "copy_to": [
              "metadata",
              "metadata_not_analysed"
            ]
          },
          "record_identifier": {
            "type": "text",
            "fields": {
              "keyword": {
                "type": "keyword",
                "ignore_above": 256
              }
            },
            "copy_to": [
              "metadata",
              "metadata_not_analysed"
            ]
          },
          "related_items_infos": {
            "properties": {
              "relateditem_id": {
                "type": "text",
                "fields": {
                  "keyword": {
                    "type": "keyword",
                    "ignore_above": 256
                  }
                }
              },
              "relateditem_title": {
                "type": "text",
                "fields": {
                  "keyword": {
                    "type": "keyword",
                    "ignore_above": 256
                  }
                },
                "copy_to": [
                  "metadata",
                  "metadata_not_analysed"
                ]
              },
              "relateditem_type": {
                "type": "text",
                "fields": {
                  "keyword": {
                    "type": "keyword",
                    "ignore_above": 256
                  }
                }
              }
            }
          },
          "rights_access_condition_infos": {
            "properties": {
              "access_condition": {
                "type": "text",
                "fields": {
                  "keyword": {
                    "type": "keyword",
                    "ignore_above": 256
                  }
                },
                "copy_to": [
                  "metadata",
                  "metadata_not_analysed"
                ]
              }
            }
          },
          "rights_info": {
            "properties": {
              "aggregator": {
                "type": "text",
                "fields": {
                  "keyword": {
                    "type": "keyword",
                    "ignore_above": 256
                  }
                }
              },
              "aggregator_logo": {
                "type": "text",
                "fields": {
                  "keyword": {
                    "type": "keyword",
                    "ignore_above": 256
                  }
                }
              },
              "aggregator_site_url": {
                "type": "text",
                "fields": {
                  "keyword": {
                    "type": "keyword",
                    "ignore_above": 256
                  }
                }
              },
              "rights_license": {
                "type": "text",
                "fields": {
                  "keyword": {
                    "type": "keyword",
                    "ignore_above": 256
                  }
                }
              },
              "rights_owner": {
                "type": "text",
                "fields": {
                  "keyword": {
                    "type": "keyword",
                    "ignore_above": 256
                  }
                }
              },
              "rights_owner_contact": {
                "type": "text",
                "fields": {
                  "keyword": {
                    "type": "keyword",
                    "ignore_above": 256
                  }
                }
              },
              "rights_owner_logo": {
                "type": "text",
                "fields": {
                  "keyword": {
                    "type": "keyword",
                    "ignore_above": 256
                  }
                }
              },
              "rights_owner_site_url": {
                "type": "text",
                "fields": {
                  "keyword": {
                    "type": "keyword",
                    "ignore_above": 256
                  }
                }
              },
              "rights_sponsor": {
                "type": "text",
                "fields": {
                  "keyword": {
                    "type": "keyword",
                    "ignore_above": 256
                  }
                }
              },
              "rights_sponsor_logo": {
                "type": "text",
                "fields": {
                  "keyword": {
                    "type": "keyword",
                    "ignore_above": 256
                  }
                }
              },
              "rights_sponsor_site_url": {
                "type": "text",
                "fields": {
                  "keyword": {
                    "type": "keyword",
                    "ignore_above": 256
                  }
                }
              }
            }
          },
          "shelfmark_infos": {
            "properties": {
              "shelfmark": {
                "type": "text",
                "fields": {
                  "keyword": {
                    "type": "keyword",
                    "ignore_above": 256
                  }
                },
                "copy_to": [
                  "metadata",
                  "metadata_not_analysed"
                ]
              }
            }
          },
          "start_page_index": {
            "type": "long"
          },
          "start_page_phys_id": {
            "type": "text",
            "fields": {
              "keyword": {
                "type": "keyword",
                "ignore_above": 256
              }
            }
          },
          "structrun": {
            "properties": {
              "catalogue": {
                "type": "text",
                "fields": {
                  "keyword": {
                    "type": "keyword",
                    "ignore_above": 256
                  }
                }
              },
              "currentno": {
                "type": "text",
                "fields": {
                  "keyword": {
                    "type": "keyword",
                    "ignore_above": 256
                  }
                }
              },
              "currentnosort": {
                "type": "long"
              },
              "dc": {
                "type": "text",
                "fields": {
                  "keyword": {
                    "type": "keyword",
                    "ignore_above": 256
                  }
                }
              },
              "issn": {
                "type": "text",
                "fields": {
                  "keyword": {
                    "type": "keyword",
                    "ignore_above": 256
                  }
                }
              },
              "parent_id": {
                "type": "text",
                "fields": {
                  "keyword": {
                    "type": "keyword",
                    "ignore_above": 256
                  }
                }
              },
              "publish_infos": {
                "properties": {
                  "place_info": {
                    "properties": {
                      "place_term": {
                        "properties": {
                          "type": {
                            "type": "text",
                            "fields": {
                              "keyword": {
                                "type": "keyword",
                                "ignore_above": 256
                              }
                            }
                          },
                          "authority": {
                            "type": "text",
                            "fields": {
                              "keyword": {
                                "type": "keyword",
                                "ignore_above": 256
                              }
                            }
                          },
                          "authorityURI": {
                            "type": "text",
                            "fields": {
                              "keyword": {
                                "type": "keyword",
                                "ignore_above": 256
                              }
                            }
                          },
                          "valueURI": {
                            "type": "text",
                            "fields": {
                              "keyword": {
                                "type": "keyword",
                                "ignore_above": 256
                              }
                            }
                          },
                          "value": {
                            "type": "text",
                            "fields": {
                              "keyword": {
                                "type": "keyword",
                                "ignore_above": 256
                              }
                            }
                          }
                        }
                      }
                    }
                  },
                  "place_publish": {
                    "type": "text",
                    "fields": {
                      "keyword": {
                        "type": "keyword",
                        "ignore_above": 256
                      }
                    }
                  },
                  "publisher": {
                    "type": "text",
                    "fields": {
                      "keyword": {
                        "type": "keyword",
                        "ignore_above": 256
                      }
                    }
                  },
                  "publisher_info": {
                    "type": "text",
                    "fields": {
                      "keyword": {
                        "type": "keyword",
                        "ignore_above": 256
                      }
                    }
                  },
                  "year_publish": {
                    "type": "long"
                  },
                  "year_publish_end": {
                    "type": "long"
                  },
                  "year_publish_start": {
                    "type": "long"
                  },
                  "year_publish_string": {
                    "type": "text",
                    "fields": {
                      "keyword": {
                        "type": "keyword",
                        "ignore_above": 256
                      }
                    }
                  }
                }
              },
              "purl": {
                "type": "text",
                "fields": {
                  "keyword": {
                    "type": "keyword",
                    "ignore_above": 256
                  }
                }
              },
              "rights_access_condition_infos": {
                "properties": {
                  "access_condition": {
                    "type": "text",
                    "fields": {
                      "keyword": {
                        "type": "keyword",
                        "ignore_above": 256
                      }
                    }
                  }
                }
              },
              "title": {
                "properties": {
                  "authority_URI": {
                    "type": "text",
                    "fields": {
                      "keyword": {
                        "type": "keyword",
                        "ignore_above": 256
                      }
                    }
                  },
                  "partname": {
                    "type": "text",
                    "fields": {
                      "keyword": {
                        "type": "keyword",
                        "ignore_above": 256
                      }
                    }
                  },
                  "partnumber": {
                    "type": "long"
                  },
                  "sorttitle": {
                    "type": "text",
                    "fields": {
                      "keyword": {
                        "type": "keyword",
                        "ignore_above": 256
                      },
                      "sort": {
                        "type": "icu_collation_keyword",
                        "index": false,
                        "language": "de",
                        "country": "DE",
                        "variant": "@collation=phonebook"
                      }
                    },
                    "analyzer": "rebuilt_german"
                  },
                  "subtitle": {
                    "type": "text",
                    "fields": {
                      "keyword": {
                        "type": "keyword",
                        "ignore_above": 256
                      }
                    },
                    "analyzer": "rebuilt_german"
                  },
                  "title": {
                    "type": "text",
                    "fields": {
                      "keyword": {
                        "type": "keyword",
                        "ignore_above": 256
                      }
                    },
                    "analyzer": "rebuilt_german"
                  },
                  "type": {
                    "type": "text",
                    "fields": {
                      "keyword": {
                        "type": "keyword",
                        "ignore_above": 256
                      }
                    }
                  },
                  "value_URI": {
                    "type": "text",
                    "fields": {
                      "keyword": {
                        "type": "keyword",
                        "ignore_above": 256
                      }
                    }
                  }
                }
              },
              "type": {
                "type": "text",
                "fields": {
                  "keyword": {
                    "type": "keyword",
                    "ignore_above": 256
                  }
                }
              },
              "zdb": {
                "type": "text",
                "fields": {
                  "keyword": {
                    "type": "keyword",
                    "ignore_above": 256
                  }
                }
              }
            }
          },
          "subject_infos": {
            "properties": {
              "subject": {
                "type": "text",
                "fields": {
                  "keyword": {
                    "type": "keyword",
                    "ignore_above": 256
                  }
                },
                "copy_to": [
                  "metadata",
                  "metadata_not_analysed"
                ]
              },
              "type": {
                "type": "text",
                "fields": {
                  "keyword": {
                    "type": "keyword",
                    "ignore_above": 256
                  }
                }
              }
            }
          },
          "succeeding": {
            "type": "text",
            "fields": {
              "keyword": {
                "type": "keyword",
                "ignore_above": 256
              }
            }
          },
          "title": {
            "properties": {
              "authority_URI": {
                "type": "text",
                "fields": {
                  "keyword": {
                    "type": "keyword",
                    "ignore_above": 256
                  }
                },
                "copy_to": [
                  "metadata",
                  "metadata_not_analysed"
                ]
              },
              "partname": {
                "type": "text",
                "fields": {
                  "keyword": {
                    "type": "keyword",
                    "ignore_above": 256
                  }
                }
              },
              "partnumber": {
                "type": "long"
              },
              "sorttitle": {
                "type": "text",
                "fields": {
                  "keyword": {
                    "type": "keyword",
                    "ignore_above": 256
                  },
                  "sort": {
                    "type": "icu_collation_keyword",
                    "index": false,
                    "language": "de",
                    "country": "DE",
                    "variant": "@collation=phonebook"
                  }
                },
                "analyzer": "rebuilt_german"
              },
              "subtitle": {
                "type": "text",
                "fields": {
                  "keyword": {
                    "type": "keyword",
                    "ignore_above": 256
                  }
                },
                "copy_to": [
                  "metadata",
                  "metadata_not_analysed"
                ],
                "analyzer": "rebuilt_german"
              },
              "title": {
                "type": "text",
                "fields": {
                  "keyword": {
                    "type": "keyword",
                    "ignore_above": 256
                  }
                },
                "copy_to": [
                  "metadata",
                  "metadata_not_analysed"
                ],
                "analyzer": "rebuilt_german"
              },
              "type": {
                "type": "text",
                "fields": {
                  "keyword": {
                    "type": "keyword",
                    "ignore_above": 256
                  }
                }
              },
              "value_URI": {
                "type": "text",
                "fields": {
                  "keyword": {
                    "type": "keyword",
                    "ignore_above": 256
                  }
                },
                "copy_to": [
                  "metadata",
                  "metadata_not_analysed"
                ]
              }
            }
          },
          "title_page_phys_id": {
            "type": "text",
            "fields": {
              "keyword": {
                "type": "keyword",
                "ignore_above": 256
              }
            }
          },
          "type": {
            "type": "text",
            "fields": {
              "keyword": {
                "type": "keyword",
                "ignore_above": 256
              }
            }
          },
          "work": {
            "type": "text",
            "fields": {
              "keyword": {
                "type": "keyword",
                "ignore_above": 256
              }
            },
            "copy_to": [
              "metadata",
              "metadata_not_analysed"
            ]
          },
          "zdb": {
            "type": "text",
            "fields": {
              "keyword": {
                "type": "keyword",
                "ignore_above": 256
              }
            },
            "copy_to": [
              "metadata",
              "metadata_not_analysed"
            ]
          }
        }
      }
    }
  }