<svg xmlns="http://www.w3.org/2000/svg" width="715" height="100" viewBox="0 0 715 100">
  <g fill="none" fill-rule="evenodd">
    <g fill-rule="nonzero" transform="translate(149 16)">
      <path fill="gray" d="M0.806,61.064 L0.806,0.607 L24.086,0.607 C42.882,0.607 52.28,10.69 52.28,30.857 C52.28,50.997 42.882,61.065 24.085,61.065 L0.805,61.065 L0.806,61.064 Z M24.086,49.021 C34.8,48.997 40.171,42.941 40.196,30.857 C40.171,18.773 34.8,12.731 24.086,12.731 L12.888,12.731 L12.888,49.021 L24.085,49.021 L24.086,49.021 Z M58.983,7.072 C60.056,5.985 61.506,5.442 63.333,5.442 C65.267,5.442 66.771,5.985 67.843,7.072 C68.918,8.159 69.456,9.51 69.456,11.12 C69.456,12.73 68.918,14.073 67.844,15.147 C66.771,16.221 65.294,16.759 63.414,16.759 C61.534,16.759 60.056,16.219 58.984,15.146 C57.908,14.072 57.372,12.73 57.372,11.119 C57.372,9.509 57.908,8.159 58.982,7.071 L58.983,7.072 Z M69.052,20.743 L69.053,20.743 L69.053,61.063 L57.775,61.063 L57.775,20.743 L69.052,20.743 Z M113.976,21.994 L113.976,57.842 C113.976,63.482 112.298,68.196 108.942,71.982 C105.584,75.77 101.355,77.768 96.254,77.982 L93.837,78.222 C86.049,78.062 80.007,75.834 75.712,71.537 L80.948,65.497 C83.902,67.644 87.486,68.853 91.701,69.121 C95.998,69.121 98.905,68.115 100.424,66.101 C101.939,64.087 102.698,61.871 102.698,59.455 L102.698,57.44 C99.691,59.858 96.2,61.065 92.228,61.065 C86.05,61.065 81.418,59.252 78.33,55.628 C75.24,52.003 73.698,47.104 73.698,40.926 C73.698,35.02 75.378,30.186 78.733,26.426 C82.088,22.666 86.853,20.786 93.031,20.786 C97.596,21.054 100.821,22.278 102.698,24.452 L102.698,20.786 L113.978,21.994 L113.976,21.994 Z M102.696,44.551 L102.696,38.027 C102.161,33.515 99.341,30.872 94.239,30.093 C87.525,30.333 83.901,33.676 83.364,40.119 C83.631,47.641 87.256,51.534 94.238,51.802 C99.338,50.998 102.158,48.582 102.695,44.552 L102.696,44.551 Z M121.27,7.072 C122.343,5.985 123.793,5.442 125.62,5.442 C127.552,5.442 129.054,5.985 130.13,7.072 C131.202,8.159 131.74,9.51 131.74,11.12 C131.74,12.73 131.202,14.073 130.13,15.147 C129.054,16.221 127.577,16.759 125.698,16.759 C123.82,16.759 122.343,16.219 121.268,15.146 C120.195,14.072 119.658,12.73 119.658,11.119 C119.658,9.509 120.195,8.159 121.268,7.071 L121.27,7.072 Z M131.338,20.743 L131.338,61.063 L120.06,61.063 L120.06,20.743 L131.338,20.743 Z"/>
      <path fill="#4D4D4D" d="M184.364,61.064 L135.99,61.064 L136.027,57.037 L164.183,11.925 L136.027,11.925 L135.989,0.645 L184.363,0.645 L184.363,5.079 L156.086,49.784 L184.363,49.784 L184.364,61.064 Z M187.776,40.926 C187.776,35.02 189.656,30.186 193.416,26.426 C197.176,22.666 202.009,20.786 207.916,20.786 C213.823,20.786 218.523,22.666 222.013,26.426 C225.503,30.186 227.249,35.02 227.249,40.926 L227.249,44.956 L199.455,44.956 C199.725,47.103 200.665,48.779 202.275,49.989 C203.888,51.195 205.765,51.799 207.915,51.799 C211.675,51.799 215.03,50.726 217.985,48.579 L224.429,55.022 C221.476,59.052 215.972,61.062 207.915,61.062 C202.008,61.062 197.175,59.182 193.415,55.424 C189.655,51.664 187.775,46.834 187.775,40.924 L187.776,40.926 Z M213.555,31.864 C211.945,30.654 210.065,30.049 207.915,30.049 C205.765,30.049 203.889,30.653 202.277,31.863 C200.665,33.071 199.861,34.749 199.861,36.897 L215.973,36.897 C215.973,34.749 215.165,33.071 213.553,31.863 L213.555,31.864 Z M233.56,7.072 C234.634,5.985 236.082,5.442 237.91,5.442 C239.843,5.442 241.347,5.985 242.423,7.072 C243.496,8.159 244.033,9.51 244.033,11.12 C244.033,12.73 243.496,14.073 242.423,15.147 C241.347,16.221 239.869,16.759 237.991,16.759 C236.111,16.759 234.636,16.219 233.561,15.146 C232.484,14.072 231.949,12.73 231.949,11.119 C231.949,9.509 232.483,8.159 233.559,7.071 L233.56,7.072 Z M243.631,20.743 L232.353,20.743 L232.353,61.063 L243.631,61.063 L243.631,20.743 Z M267.887,61.064 C263.321,61.064 259.697,59.791 257.013,57.24 C254.323,54.688 252.983,51.398 252.983,47.37 L252.983,29.93 L246.943,29.93 L246.943,20.826 L252.983,20.826 L252.983,9.912 L264.301,8.704 L264.301,20.826 L270.343,20.826 L270.343,29.929 L264.303,29.929 L264.303,45.759 C264.303,47.907 264.753,49.417 265.653,50.289 C266.553,51.163 267.713,51.599 269.136,51.599 C269.566,51.599 270.574,51.425 272.159,51.076 L274.534,59.172 C272.604,60.434 270.386,61.062 267.888,61.062 L267.887,61.064 Z M300.962,21.914 C303.055,22.827 305.016,24.184 306.842,25.982 L300.56,33.072 C298.732,30.894 296.452,29.808 293.71,29.808 C290.998,29.808 289.186,30.313 288.273,31.318 C287.361,32.328 287.361,33.238 288.273,34.058 C289.185,34.876 290.998,35.554 293.711,36.091 C297.713,36.471 300.989,37.611 303.541,39.516 C306.091,41.424 307.368,44.739 307.368,49.466 C307.368,53.278 305.862,56.233 302.858,58.326 C299.848,60.422 296.344,61.469 292.342,61.469 C288.53,61.469 285.357,60.924 282.817,59.839 C280.279,58.749 278.1,57.293 276.273,55.467 L282.516,48.417 C284.343,50.592 287.176,51.857 291.014,52.202 C294.104,52.202 296.097,51.702 296.994,50.694 C297.897,49.688 298.03,48.68 297.401,47.674 C296.771,46.664 294.641,45.989 291.014,45.64 C287.739,45.263 284.737,44.257 282.012,42.62 C279.287,40.983 277.926,37.894 277.926,33.354 C277.926,29.194 279.474,26.018 282.574,23.829 C285.676,21.641 288.864,20.547 292.141,20.547 C295.931,20.547 298.869,21.003 300.966,21.917 L300.962,21.914 Z M316.09,56.03 C312.06,52.675 310.05,48.31 310.05,42.94 L310.05,38.914 C310.05,33.544 312.06,29.179 316.09,25.822 C320.117,22.465 324.83,20.786 330.227,20.786 C336.67,20.786 342.03,23.07 346.3,27.634 L338.244,33.676 C335.826,31.26 333.141,30.051 330.187,30.051 C327.499,30.051 325.152,31.127 323.137,33.275 C321.122,35.423 320.117,37.975 320.117,40.927 C320.117,43.882 321.057,46.431 322.937,48.581 C324.817,50.727 327.232,51.801 330.187,51.801 C333.141,51.801 335.827,50.593 338.244,48.177 L346.3,54.22 C342.002,58.783 336.63,61.065 330.188,61.065 C324.816,61.065 320.118,59.387 316.09,56.029 L316.09,56.03 Z M361.335,33.838 L361.335,61.065 L350.055,61.065 L350.055,0.647 L361.335,0.647 L361.335,24.412 C364.045,21.994 367.27,20.786 371,20.786 C376.104,20.786 379.998,22.331 382.684,25.418 C385.368,28.506 386.711,32.065 386.711,36.092 L386.711,61.065 L375.434,61.065 L375.434,38.913 C375.434,36.226 374.764,34.143 373.42,32.669 C372.076,31.189 370.05,30.412 367.337,30.331 C365,30.491 363,31.661 361.335,33.837 L361.335,33.838 Z M403.354,25.217 C406.224,22.263 409.732,20.787 413.868,20.787 C415.184,20.787 416.431,20.895 417.614,21.107 L415.841,32.227 C414.526,31.045 412.645,30.413 410.201,30.332 C407.465,30.52 405.181,32.508 403.355,36.292 L403.355,61.064 L392.077,61.064 L392.077,21.956 L403.355,20.744 L403.355,25.217 L403.354,25.217 Z M422.066,7.072 C423.138,5.985 424.588,5.442 426.416,5.442 C428.35,5.442 429.853,5.985 430.928,7.072 C432,8.159 432.538,9.51 432.538,11.12 C432.538,12.73 432,14.073 430.928,15.147 C429.854,16.221 428.375,16.759 426.498,16.759 C424.615,16.759 423.138,16.219 422.066,15.146 C420.992,14.072 420.454,12.73 420.454,11.119 C420.454,9.509 420.992,8.159 422.066,7.071 L422.066,7.072 Z M432.136,20.743 L420.86,20.743 L420.86,61.063 L432.137,61.063 L432.137,20.743 L432.136,20.743 Z M452.354,28.842 L452.354,61.065 L441.037,61.065 L441.037,28.842 L434.992,28.842 L434.992,19.74 L441.037,19.74 L441.037,14.343 C441.037,10.315 442.379,7.025 445.065,4.473 C447.745,1.923 451.375,0.647 455.935,0.647 C460.772,0.647 464.531,1.991 467.215,4.675 L461.212,11.362 C460.462,10.529 459.12,10.112 457.185,10.112 C455.763,10.112 454.603,10.549 453.705,11.422 C452.801,12.294 452.355,13.805 452.355,15.952 L452.355,19.74 L452.354,28.842 Z"/>
      <path fill="#4D4D4D" d="M477.325,61.064 C472.761,61.064 469.135,59.791 466.451,57.24 C463.764,54.688 462.424,51.398 462.424,47.37 L462.424,28.85 L436.508,28.85 L436.508,19.748 L462.424,19.748 L462.424,18.224 L473.739,7.066 L473.739,19.748 L479.782,19.748 L479.782,28.85 L473.74,28.85 L473.74,45.76 C473.74,47.908 474.193,49.418 475.09,50.29 C475.992,51.164 477.153,51.6 478.576,51.6 C479.006,51.6 480.012,51.426 481.596,51.077 L483.972,59.173 C482.042,60.435 479.827,61.063 477.327,61.063 L477.325,61.064 Z M484.015,40.926 C484.015,35.02 485.892,30.186 489.655,26.426 C493.413,22.666 498.247,20.786 504.157,20.786 C510.063,20.786 514.761,22.666 518.252,26.426 C521.742,30.186 523.489,35.02 523.489,40.926 L523.489,44.956 L495.693,44.956 C495.963,47.103 496.903,48.779 498.516,49.989 C500.126,51.195 502.006,51.799 504.156,51.799 C507.914,51.799 511.269,50.726 514.223,48.579 L520.669,55.022 C517.714,59.052 512.209,61.062 504.155,61.062 C498.245,61.062 493.411,59.182 489.653,55.424 C485.891,51.664 484.013,46.834 484.013,40.924 L484.015,40.926 Z M509.79,31.864 C508.183,30.654 506.3,30.049 504.156,30.049 C502.006,30.049 500.126,30.653 498.516,31.863 C496.902,33.071 496.096,34.749 496.096,36.897 L512.208,36.897 C512.208,34.749 511.404,33.071 509.791,31.863 L509.79,31.864 Z M540.104,35.447 L540.104,61.064 L528.826,61.064 L528.826,21.956 L540.104,20.746 L540.104,24.413 C542.819,21.993 546.041,20.786 549.771,20.786 C554.876,20.786 558.771,22.331 561.455,25.419 C564.139,28.507 565.481,32.065 565.481,36.091 L565.481,61.064 L554.204,61.064 L554.204,38.914 C554.204,36.226 553.534,34.144 552.19,32.669 C550.847,31.189 548.82,30.413 546.107,30.332 C543.77,30.492 541.77,32.199 540.104,35.446 L540.104,35.447 Z M120.298,83.46 L120.298,70.73 L125.202,70.73 C129.16,70.73 131.14,72.852 131.14,77.1 C131.14,81.34 129.16,83.46 125.202,83.46 L120.298,83.46 Z M125.202,80.926 C127.458,80.92 128.589,79.643 128.595,77.1 C128.589,74.555 127.458,73.283 125.202,73.283 L122.844,73.283 L122.844,80.927 L125.202,80.927 L125.202,80.926 Z M131.986,83.46 L137.076,70.734 L139.621,70.734 L144.704,83.452 L141.998,83.462 L141.233,81.512 L135.463,81.512 L134.703,83.462 L131.987,83.462 L131.986,83.46 Z M138.416,74.13 L136.483,78.967 L140.299,78.967 L138.416,74.129 L138.416,74.13 Z M153.165,71.16 C153.815,71.443 154.425,71.867 154.989,72.432 L153.292,74.128 C152.726,73.45 151.934,73.11 150.916,73.11 C149.898,73.11 149.248,73.352 148.966,73.83 C148.684,74.312 148.684,74.723 148.966,75.062 C149.248,75.402 149.898,75.655 150.916,75.824 C151.992,75.937 152.966,76.292 153.842,76.886 C154.72,77.481 155.157,78.426 155.157,79.728 C155.157,80.748 154.689,81.624 153.752,82.356 C152.818,83.093 151.727,83.46 150.482,83.46 C149.302,83.46 148.314,83.29 147.522,82.952 C146.73,82.61 146.052,82.162 145.488,81.595 L147.181,79.898 C147.749,80.576 148.709,80.973 150.067,81.086 C151.197,81.086 151.903,80.846 152.183,80.366 C152.461,79.886 152.461,79.403 152.183,78.926 C151.903,78.442 151.198,78.146 150.066,78.033 C149.048,77.92 148.114,77.607 147.266,77.099 C146.416,76.589 145.993,75.711 145.993,74.469 C145.993,73.342 146.473,72.439 147.439,71.759 C148.405,71.076 149.395,70.733 150.411,70.733 C151.595,70.733 152.511,70.878 153.161,71.159 L153.165,71.16 Z M163.196,83.46 L163.196,70.73 L168.099,70.73 C172.057,70.73 174.036,72.852 174.036,77.1 C174.036,81.34 172.056,83.46 168.098,83.46 L163.194,83.46 L163.196,83.46 Z M168.099,80.926 C170.354,80.92 171.487,79.643 171.491,77.1 C171.487,74.555 170.354,73.283 168.098,73.283 L165.74,73.283 L165.74,80.927 L168.097,80.927 L168.099,80.926 Z M176.406,83.46 L176.406,70.745 L185.754,70.735 L185.754,73.112 L178.952,73.112 L178.952,75.827 L184.05,75.827 L184.05,78.195 L178.952,78.195 L178.952,81.087 L185.738,81.087 L185.738,83.463 L176.406,83.46 Z M190.22,70.734 L190.22,78.114 C190.22,79.08 190.502,79.784 191.07,80.238 C191.634,80.688 192.34,80.918 193.19,80.918 C194.04,80.918 194.744,80.688 195.31,80.238 C195.876,79.785 196.158,79.08 196.158,78.115 L196.158,70.735 L198.703,70.735 L198.703,78.795 C198.703,80.095 198.18,81.201 197.133,82.105 C196.088,83.01 194.773,83.461 193.189,83.461 C191.605,83.461 190.289,83.011 189.244,82.107 C188.197,81.203 187.674,80.097 187.674,78.797 L187.674,70.735 L190.219,70.735 L190.22,70.734 Z M211.327,70.734 L211.327,73.111 L207.084,73.111 L207.084,83.461 L204.538,83.461 L204.538,73.11 L200.298,73.11 L200.298,70.734 L211.327,70.734 Z M219.756,71.16 C220.404,71.443 221.014,71.867 221.578,72.432 L219.882,74.128 C219.317,73.45 218.526,73.11 217.508,73.11 C216.488,73.11 215.838,73.352 215.556,73.83 C215.276,74.312 215.276,74.723 215.556,75.062 C215.838,75.402 216.489,75.655 217.508,75.824 C218.58,75.937 219.558,76.292 220.436,76.886 C221.31,77.481 221.749,78.426 221.749,79.728 C221.749,80.748 221.279,81.624 220.344,82.356 C219.406,83.093 218.321,83.46 217.076,83.46 C215.892,83.46 214.904,83.29 214.113,82.952 C213.323,82.61 212.645,82.162 212.078,81.595 L213.771,79.898 C214.339,80.576 215.299,80.973 216.657,81.086 C217.787,81.086 218.492,80.846 218.773,80.366 C219.053,79.886 219.053,79.403 218.773,78.926 C218.493,78.442 217.787,78.146 216.656,78.033 C215.636,77.92 214.704,77.607 213.856,77.099 C213.009,76.589 212.583,75.711 212.583,74.469 C212.583,73.342 213.063,72.439 214.03,71.759 C214.995,71.076 215.985,70.733 217.004,70.733 C218.184,70.733 219.102,70.878 219.752,71.159 L219.756,71.16 Z M224.833,81.633 C223.613,80.421 223.006,78.901 223.006,77.073 C223.012,75.286 223.623,73.783 224.839,72.566 C226.053,71.346 227.559,70.734 229.359,70.734 C231.174,70.734 232.732,71.302 234.033,72.434 L232.337,74.29 C231.473,73.61 230.479,73.274 229.359,73.274 C228.219,73.276 227.299,73.634 226.599,74.34 C225.899,75.047 225.549,75.953 225.549,77.055 C225.556,78.237 225.909,79.175 226.609,79.871 C227.311,80.567 228.234,80.917 229.376,80.917 C230.52,80.917 231.506,80.579 232.336,79.907 L234.033,81.762 C232.738,82.896 231.18,83.46 229.359,83.46 C227.559,83.458 226.053,82.848 224.832,81.635 L224.833,81.633 Z M235.99,83.46 L235.99,70.735 L238.534,70.735 L238.534,75.825 L244.462,75.825 L244.462,70.73 L247.008,70.73 L247.008,83.452 L244.462,83.462 L244.462,78.2 L238.534,78.2 L238.534,83.46 L235.99,83.46 Z M249.64,83.46 L249.64,70.745 L258.985,70.735 L258.985,73.112 L252.183,73.112 L252.183,75.827 L257.283,75.827 L257.283,78.195 L252.183,78.195 L252.183,81.087 L258.969,81.087 L258.969,83.463 L249.64,83.46 Z M267.313,83.46 L267.313,70.73 L272.216,70.73 C276.172,70.73 278.154,72.852 278.154,77.1 C278.154,81.34 276.172,83.46 272.216,83.46 L267.313,83.46 Z M272.216,80.926 C274.472,80.92 275.602,79.643 275.61,77.1 C275.602,74.555 274.472,73.283 272.216,73.283 L269.859,73.283 L269.859,80.927 L272.215,80.927 L272.216,80.926 Z M280.53,70.73 L283.064,70.73 L283.064,83.46 L280.529,83.46 L280.53,70.73 Z M286.747,81.633 C285.531,80.421 284.922,78.901 284.922,77.073 C284.926,75.286 285.537,73.783 286.752,72.566 C287.967,71.346 289.476,70.734 291.274,70.734 C293.091,70.734 294.647,71.302 295.948,72.434 L294.254,74.29 C293.388,73.61 292.394,73.274 291.274,73.274 C290.134,73.276 289.21,73.634 288.514,74.34 C287.814,75.047 287.468,75.953 287.468,77.055 C287.473,78.237 287.825,79.175 288.528,79.871 C289.228,80.567 290.15,80.917 291.292,80.917 C292.209,80.917 292.91,80.735 293.406,80.372 L293.406,78.192 L291.708,78.202 L291.708,75.825 L295.948,75.825 L295.948,81.763 C294.654,82.897 293.098,83.461 291.275,83.461 C289.475,83.459 287.967,82.849 286.747,81.636 L286.747,81.633 Z M298.434,70.73 L300.974,70.73 L300.974,83.46 L298.434,83.46 L298.434,70.73 Z M313.502,70.734 L313.502,73.111 L309.262,73.111 L309.262,83.461 L306.716,83.461 L306.716,73.11 L302.474,73.11 L302.474,70.734 L313.502,70.734 Z M312.643,83.46 L317.731,70.734 L320.279,70.734 L325.357,83.452 L322.652,83.462 L321.889,81.512 L316.123,81.512 L315.36,83.462 L312.646,83.462 L312.643,83.46 Z M319.073,74.13 L317.136,78.967 L320.954,78.967 L319.074,74.129 L319.073,74.13 Z M329.408,70.734 L329.408,81.086 L336.195,81.086 L336.195,83.461 L326.861,83.461 L326.861,70.735 L329.408,70.734 Z M337.764,83.46 L337.764,70.745 L347.109,70.735 L347.109,73.112 L340.305,73.112 L340.305,75.827 L345.402,75.827 L345.402,78.195 L340.305,78.195 L340.305,81.087 L347.091,81.087 L347.091,83.463 L337.764,83.46 Z M365.41,83.46 L355.223,83.46 L355.229,82.61 L361.159,73.11 L355.229,73.11 L355.222,70.734 L365.409,70.734 L365.409,71.67 L359.455,81.085 L365.409,81.085 L365.41,83.46 Z M367.514,83.46 L367.514,70.745 L376.86,70.735 L376.86,73.112 L370.06,73.112 L370.06,75.827 L375.157,75.827 L375.157,78.195 L370.059,78.195 L370.059,81.087 L376.841,81.087 L376.841,83.463 L367.514,83.46 Z M379.148,70.73 L381.688,70.73 L381.688,83.46 L379.148,83.46 L379.148,70.73 Z M394.22,70.734 L394.22,73.111 L389.977,73.111 L389.977,83.461 L387.433,83.461 L387.433,73.11 L383.191,73.11 L383.191,70.734 L394.22,70.734 Z M402.648,71.16 C403.298,71.443 403.904,71.867 404.47,72.432 L402.774,74.128 C402.208,73.45 401.416,73.11 400.396,73.11 C399.38,73.11 398.728,73.352 398.446,73.83 C398.166,74.312 398.166,74.723 398.446,75.062 C398.728,75.402 399.381,75.655 400.396,75.824 C401.47,75.937 402.451,76.292 403.326,76.886 C404.201,77.481 404.64,78.426 404.64,79.728 C404.64,80.748 404.173,81.624 403.238,82.356 C402.3,83.093 401.21,83.46 399.965,83.46 C398.783,83.46 397.799,83.29 397.005,82.952 C396.215,82.61 395.535,82.162 394.969,81.595 L396.667,79.898 C397.23,80.576 398.194,80.973 399.55,81.086 C400.68,81.086 401.387,80.846 401.666,80.366 C401.946,79.886 401.946,79.403 401.666,78.926 C401.386,78.442 400.68,78.146 399.551,78.033 C398.534,77.92 397.599,77.607 396.751,77.099 C395.903,76.589 395.481,75.711 395.481,74.469 C395.481,73.342 395.961,72.439 396.925,71.759 C397.888,71.076 398.88,70.733 399.902,70.733 C401.082,70.733 401.998,70.878 402.65,71.159 L402.648,71.16 Z M407.725,81.633 C406.505,80.421 405.899,78.901 405.899,77.073 C405.902,75.286 406.513,73.783 407.729,72.566 C408.945,71.346 410.452,70.734 412.249,70.734 C414.067,70.734 415.625,71.302 416.924,72.434 L415.23,74.29 C414.367,73.61 413.373,73.274 412.252,73.274 C411.112,73.276 410.192,73.634 409.49,74.34 C408.793,75.047 408.443,75.953 408.443,77.055 C408.451,78.237 408.803,79.175 409.503,79.871 C410.207,80.567 411.129,80.917 412.27,80.917 C413.415,80.917 414.4,80.579 415.232,79.907 L416.926,81.762 C415.633,82.896 414.076,83.46 412.252,83.46 C410.452,83.458 408.945,82.848 407.725,81.635 L407.725,81.633 Z M418.88,83.46 L418.88,70.735 L421.427,70.735 L421.427,75.825 L427.355,75.825 L427.355,70.73 L429.899,70.73 L429.899,83.452 L427.354,83.462 L427.354,78.2 L421.426,78.2 L421.426,83.46 L418.88,83.46 Z M440.2,77.912 L443.375,83.462 L440.457,83.462 L437.41,78.202 L435.088,78.202 L435.088,83.462 L432.541,83.462 L432.541,70.733 L438.091,70.733 C441.061,70.733 442.546,71.958 442.546,74.4 C442.546,76.238 441.766,77.408 440.202,77.912 L440.2,77.912 Z M435.09,75.825 L438.653,75.825 C439.677,75.808 440.203,75.345 440.233,74.428 C440.203,73.59 439.687,73.155 438.681,73.121 L435.091,73.121 L435.091,75.826 L435.09,75.825 Z M444.7,70.73 L447.234,70.73 L447.234,83.46 L444.7,83.46 L444.7,70.73 Z M449.78,83.46 L449.78,70.735 L458.73,70.735 L458.73,73.112 L452.325,73.112 L452.325,75.827 L457.048,75.827 L457.048,78.195 L452.325,78.195 L452.325,83.463 L449.78,83.46 Z M470.904,70.734 L470.904,73.111 L466.662,73.111 L466.662,83.461 L464.118,83.461 L464.118,73.11 L459.876,73.11 L459.876,70.734 L470.904,70.734 Z M472.37,83.46 L472.37,70.745 L481.718,70.735 L481.718,73.112 L474.914,73.112 L474.914,75.827 L480.014,75.827 L480.014,78.195 L474.914,78.195 L474.914,81.087 L481.699,81.087 L481.699,83.463 L472.37,83.46 Z M483.955,83.46 L483.955,70.735 L484.803,70.735 L492.775,78.712 L492.775,70.736 L495.322,70.736 L495.322,83.463 L494.388,83.463 L486.498,75.575 L486.498,83.465 L483.955,83.46 Z M496.846,83.46 L501.938,70.734 L504.483,70.734 L509.563,83.452 L506.858,83.462 L506.094,81.512 L500.326,81.512 L499.562,83.462 L496.846,83.462 L496.846,83.46 Z M503.278,74.13 L501.341,78.967 L505.161,78.967 L503.279,74.129 L503.278,74.13 Z M518.713,77.912 L521.883,83.462 L518.967,83.462 L515.922,78.202 L513.598,78.202 L513.598,83.462 L511.053,83.462 L511.053,70.733 L516.6,70.733 C519.57,70.733 521.053,71.958 521.053,74.4 C521.053,76.238 520.273,77.408 518.713,77.912 Z M513.598,75.825 L517.158,75.825 C518.183,75.808 518.71,75.345 518.738,74.428 C518.71,73.59 518.191,73.155 517.185,73.121 L513.598,73.121 L513.598,75.826 L513.598,75.825 Z M524.21,81.633 C522.99,80.421 522.383,78.901 522.383,77.073 C522.387,75.286 522.996,73.783 524.213,72.566 C525.43,71.346 526.937,70.734 528.735,70.734 C530.551,70.734 532.108,71.302 533.409,72.434 L531.712,74.29 C530.848,73.61 529.856,73.274 528.734,73.274 C527.592,73.276 526.674,73.634 525.971,74.34 C525.275,75.047 524.924,75.953 524.924,77.055 C524.934,78.237 525.284,79.175 525.986,79.871 C526.688,80.567 527.609,80.917 528.753,80.917 C529.897,80.917 530.881,80.579 531.713,79.907 L533.408,81.762 C532.112,82.896 530.555,83.46 528.733,83.46 C526.935,83.458 525.427,82.848 524.207,81.635 L524.21,81.633 Z M535.365,83.46 L535.365,70.735 L537.909,70.735 L537.909,75.825 L543.839,75.825 L543.839,70.73 L546.383,70.73 L546.383,83.452 L543.839,83.462 L543.839,78.2 L537.909,78.2 L537.909,83.46 L535.365,83.46 Z M549.02,70.73 L551.558,70.73 L551.558,83.46 L549.021,83.46 L549.02,70.73 Z M555.702,70.734 L559.316,80.061 L562.996,70.735 L565.71,70.735 L560.63,83.462 L558.085,83.462 L552.985,70.736 L555.702,70.734 Z"/>
    </g>
    <g fill-rule="nonzero">
      <path fill="#A10000" d="M66.185,42.268 L84.905,42.268 L84.905,60.984 L66.185,60.984 L66.185,42.268 Z M36.57,44.19 L37.243,44.268 L37.243,39.592 C31.759,39.375 28.751,43.502 25.815,47.437 L0.197,83.93 C4.089,82.8 7.889,81.56 11.917,81.028 C21.13,79.815 30.5,79.45 39.785,79.45 C47.581,79.46 56.258,79.15 63.35,82.927 L63.465,83.042 C64.407,83.14 65.462,82.239 66.313,81.905 C68.469,81.057 70.739,80.525 73.026,80.175 C77.836,79.437 82.733,79.448 87.588,79.451 L87.645,79.381 L87.645,79.451 C94.865,79.449 102.092,79.738 109.285,80.365 C113.009,80.689 116.89,80.933 120.5,81.975 C122.75,82.617 124.994,83.28 127.24,83.933 L101.14,46.021 C98.615,42.469 95.456,39.391 90.784,39.593 L90.784,44.213 C93.73,44.023 95.606,46.19 97.17,48.397 C98.86,50.78 100.57,53.149 102.28,55.519 C106.95,61.987 111.67,70.767 116.502,77.115 C108.156,75.261 99.372,74.98 90.855,74.86 C81.92,74.733 72.045,74.172 63.715,77.97 C55.385,74.172 45.51,74.733 36.575,74.86 C28.059,74.98 19.275,75.26 10.929,77.114 L30.119,49.384 C31.732,47.209 33.496,44.194 36.564,44.194 L36.569,44.189 L36.57,44.19 Z M68.974,2.945 L79.202,2.945 L79.202,13.173 L68.974,13.173 L68.974,2.945 Z M57.526,19.37 L71.82,19.37 L71.82,33.666 L57.526,33.666 L57.526,19.37 Z M48.182,40.156 L60.347,40.156 L60.347,52.322 L48.182,52.322 L48.182,40.156 Z M42.902,26.916 L51.622,26.916 L51.622,35.636 L42.9,35.636 L42.902,26.916 Z M57.455,0.514 L62.615,0.514 L62.615,5.674 L57.455,5.674 L57.455,0.514 Z M47.834,14.178 L52.994,14.178 L52.994,19.338 L47.834,19.338 L47.834,14.178 Z"/>
      <path fill="gray" d="M97.6 21.32C105.315 21.334 111.674 27.69 111.686 35.41L111.688 39.136 111.688 52.81C113.254 54.976 114.895 58.412 116.4 60.468L116.4 35.408C116.4 25.068 107.94 16.608 97.6 16.608L97.6 21.318 97.6 21.32zM110.608 85.998C108.481 91.102 103.43 94.738 97.598 94.75L41.514 94.75 41.514 99.46 97.6 99.46C105.718 99.46 112.66 94.234 115.274 86.988 113.939 86.682 112.367 86.342 110.608 85.998z"/>
    </g>
  </g>
</svg>
