module gitlab.gwdg.de/subugoe/metsimporter/collector

go 1.21

require (
	github.com/aws/aws-sdk-go v1.44.13
	github.com/go-redis/redis v6.15.9+incompatible
	github.com/sirupsen/logrus v1.8.1
	gitlab.gwdg.de/subugoe/metsimporter/indexer v0.0.0-20220601165209-fc9afdc0f62d
	gitlab.gwdg.de/subugoe/shared-product-configs v0.8.8
)

require (
	github.com/PuerkitoBio/goquery v1.8.0 // indirect
	github.com/akamensky/argparse v1.3.1 // indirect
	github.com/andybalholm/cascadia v1.3.1 // indirect
	github.com/elastic/go-elasticsearch/v6 v6.8.10 // indirect
	github.com/fsnotify/fsnotify v1.5.4 // indirect
	github.com/hashicorp/hcl v1.0.0 // indirect
	github.com/jmespath/go-jmespath v0.4.0 // indirect
	github.com/josharian/intern v1.0.0 // indirect
	github.com/magiconair/properties v1.8.6 // indirect
	github.com/mailru/easyjson v0.7.7 // indirect
	github.com/mitchellh/mapstructure v1.5.0 // indirect
	github.com/olivere/elastic v6.2.37+incompatible // indirect
	github.com/pelletier/go-toml v1.9.5 // indirect
	github.com/pelletier/go-toml/v2 v2.0.1 // indirect
	github.com/pkg/errors v0.9.1 // indirect
	github.com/spf13/afero v1.8.2 // indirect
	github.com/spf13/cast v1.5.0 // indirect
	github.com/spf13/jwalterweatherman v1.1.0 // indirect
	github.com/spf13/pflag v1.0.5 // indirect
	github.com/spf13/viper v1.12.0 // indirect
	github.com/subosito/gotenv v1.3.0 // indirect
	golang.org/x/net v0.0.0-20220520000938-2e3eb7b945c2 // indirect
	golang.org/x/sys v0.0.0-20220520151302-bc2c85ada10a // indirect
	golang.org/x/text v0.3.7 // indirect
	gopkg.in/gographics/imagick.v3 v3.4.1 // indirect
	gopkg.in/ini.v1 v1.66.4 // indirect
	gopkg.in/sohlich/elogrus.v3 v3.0.0-20180410122755-1fa29e2f2009 // indirect
	gopkg.in/yaml.v2 v2.4.0 // indirect
	gopkg.in/yaml.v3 v3.0.0 // indirect
)
